{
  "info": {
    "_postman_id": "31551a05-d412-4435-a4b0-28341716c06f",
    "name": "Product Trust API",
    "schema": "https://schema.getpostman.com/json/collection/v2.0.0/collection.json"
  },
  "item": [
    {
      "name": "Postman | Me",
      "id": "b3482556-4996-4ce5-a27a-cd2ff9440ab9",
      "protocolProfileBehavior": {
        "disableBodyPruning": true
      },
      "request": {
        "auth": {
          "type": "apikey",
          "apikey": {
            "value": "<API-Key-Here>",
            "key": "x-api-key"
          }
        },
        "method": "GET",
        "header": [],
        "url": "https://api.getpostman.com/me"
      },
      "response": []
    },
    {
      "name": "Postman | Get Collections",
      "id": "39449262-5336-4cd0-86fb-a2a45a544481",
      "protocolProfileBehavior": {
        "disableBodyPruning": true
      },
      "request": {
        "auth": {
          "type": "apikey",
          "apikey": {
            "value": "<API-Key-Here>",
            "key": "x-api-key"
          }
        },
        "method": "GET",
        "header": [],
        "url": "https://api.getpostman.com/me"
      },
      "response": []
    }
  ]
}